,cumulative_cases,deaths,hospitalized_cases
2020-02-27 14:00:00,1,,
2020-02-28 14:00:00,2,,
2020-02-29 14:00:00,6,,
2020-03-01 14:00:00,10,,
2020-03-02 14:00:00,18,,
2020-03-03 14:00:00,23,,
2020-03-04 14:00:00,38,,
2020-03-05 14:00:00,82,,
2020-03-06 14:00:00,128,1.0,
2020-03-07 14:00:00,188,2.0,
2020-03-08 14:00:00,265,4.0,
2020-03-09 14:00:00,321,4.0,
2020-03-10 14:00:00,382,4.0,
2020-03-11 14:00:00,503,5.0,
2020-03-12 14:00:00,614,5.0,86.0
2020-03-13 14:00:00,804,10.0,115.0
2020-03-14 14:00:00,957,12.0,136.0
2020-03-15 14:00:00,1135,20.0,162.0
2020-03-16 14:00:00,1413,24.0,205.0
2020-03-17 14:00:00,1705,43.0,314.0
2020-03-18 14:00:00,2051,58.0,408.0
2020-03-19 14:00:00,2460,76.0,489.0
2020-03-20 14:00:00,2994,106.0,643.0
2020-03-21 14:00:00,3631,136.0,836.0
2020-03-22 14:00:00,4204,179.0,988.0
2020-03-23 14:00:00,4749,213.0,1230.0
2020-03-24 14:00:00,5560,276.0,1495.0
2020-03-25 14:00:00,6412,356.0,1836.0
2020-03-26 14:00:00,7431,434.0,2151.0
2020-03-27 14:00:00,8603,546.0,2500.0
2020-03-28 14:00:00,9762,639.0,2954.0
2020-03-29 14:00:00,10866,771.0,3483.0
2020-03-30 14:00:00,11750,864.0,3990.0
2020-03-31 14:00:00,12595,1039.0,4712.0
2020-04-01 14:00:00,13614,1173.0,5159.0
2020-04-02 14:00:00,14697,1339.0,5784.0
2020-04-03 14:00:00,15723,1487.0,6286.0
2020-04-04 14:00:00,16627,1651.0,6622.0
2020-04-05 14:00:00,17851,1766.0,6875.0
2020-04-06 14:00:00,18803,1867.0,7135.0
2020-04-07 14:00:00,19580,2101.0,7427.0
2020-04-08 14:00:00,20549,2248.0,7735.0

2020-04-08 14:00:00,20549,2248.0,7735.0
2020-04-08 14:00:00,20549,2248.0,7735.0
2020-04-08 14:00:00,20549,2248.0,7735.0
2020-04-08 14:00:00,20549,2248.0,7735.0
2020-04-08 14:00:00,20549,2248.0,7735.0
2020-04-08 14:00:00,20549,2248.0,7735.0
2020-04-08 14:00:00,20549,2248.0,7735.0
2020-04-08 14:00:00,20549,2248.0,7735.0
2020-04-08 14:00:00,20549,2248.0,7735.0
